{
    "service": "micro-core",
    "SENTRY_DSN": "https://...@sentry.io/...",
    "log":
    {
        "logglyHandler":
        {
            "level": "debug",
            "customerToken": "...loggly token...",
            "tags":
            [
                "monolog"
            ]
        },
        "streamHandler":
        {
            "level": "debug",
            "filePath": "/home/worker/volume/logs/monolog.log"
        }
    },
    "provideCorrelationId": false,
    "jwtKey": "It's the mega secret JSON Web Token key.",
    "hasAccessibleResourceWithoutAuthentication": true
}
