[
    { "code": "core-error-500", "text": "We are sorry, something went wrong on our side." },
    { "code": "core-error-001", "text": "The requested resource could not be found." },
    { "code": "core-error-002", "text": "Content-Type must be application/json." },
    { "code": "core-error-003", "text": "Malformed JSON, please review the syntax and properties types." },
    { "code": "core-error-004", "text":  "Missing authorization header." },
    { "code": "core-error-005", "text":  "Missing authorization token." },
    { "code": "core-error-006", "text":  "Authorization token has expired." },
    { "code": "core-error-007", "text":  "Authorization token is not yet valid." },
    { "code": "core-error-008", "text":  "Invalid authorization token." },
    { "code": "core-error-009", "text":  "Accessing the resource is forbidden, caused by incorrect ownership or permissions." },
    { "code": "core-ok-001", "text": "Ok" }
]
